<?xml version="1.0" encoding="UTF-8" standalone="no"?>
<svg
   xmlns:dc="http://purl.org/dc/elements/1.1/"
   xmlns:cc="http://creativecommons.org/ns#"
   xmlns:rdf="http://www.w3.org/1999/02/22-rdf-syntax-ns#"
   xmlns:svg="http://www.w3.org/2000/svg"
   xmlns="http://www.w3.org/2000/svg"
   xmlns:sodipodi="http://sodipodi.sourceforge.net/DTD/sodipodi-0.dtd"
   xmlns:inkscape="http://www.inkscape.org/namespaces/inkscape"
   inkscape:version="1.0 (4035a4fb49, 2020-05-01)"
   sodipodi:docname="China_road_sign_禁_38 (40).svg"
   viewBox="0 0 300 299.99982"
   height="299.99982"
   width="300"
   id="svg4991"
   version="1.1">
  <metadata
     id="metadata4997">
    <rdf:RDF>
      <cc:Work
         rdf:about="">
        <dc:format>image/svg+xml</dc:format>
        <dc:type
           rdf:resource="http://purl.org/dc/dcmitype/StillImage" />
        <dc:title></dc:title>
      </cc:Work>
    </rdf:RDF>
  </metadata>
  <defs
     id="defs4995" />
  <sodipodi:namedview
     inkscape:current-layer="text5005"
     inkscape:window-maximized="1"
     inkscape:window-y="-9"
     inkscape:window-x="-9"
     inkscape:cy="326.02181"
     inkscape:cx="514.55326"
     inkscape:zoom="0.94398813"
     showgrid="false"
     id="namedview4993"
     inkscape:window-height="1001"
     inkscape:window-width="1920"
     inkscape:pageshadow="2"
     inkscape:pageopacity="0"
     guidetolerance="10"
     gridtolerance="10"
     objecttolerance="10"
     borderopacity="1"
     bordercolor="#666666"
     pagecolor="#ffffff" />
  <g
     transform="translate(-0.73552479,-3.282)"
     id="g4999"
     inkscape:label="Image"
     inkscape:groupmode="layer">
    <g
       style="font-style:normal;font-weight:normal;font-size:206.299px;line-height:1.25;font-family:sans-serif;fill:#000000;fill-opacity:1;stroke:none;stroke-width:5.15748"
       id="text5005"
       transform="matrix(0.5543198,0,0,0.76735795,0.25581729,1.1414875)"
       aria-label="4">
      <g
         style="opacity:1"
         transform="matrix(1.1552271,0,0,0.83450603,572.73314,7.5646904)"
         id="g3929"
         inkscape:label="Image">
        <g
           inkscape:label="Image"
           id="g3722"
           transform="translate(-493.79868,-8.1185834)">
          <g
             id="g3720"
             transform="matrix(1.2901279,0,0,1.2901279,-1.2275844,2.3962852)">
            <path
               id="path3714"
               d="M 362.52362,181.56447 A 180.9592,180.9592 0 0 1 181.56442,362.52367 180.9592,180.9592 0 0 1 0.60522461,181.56447 180.9592,180.9592 0 0 1 181.56442,0.60527039 180.9592,180.9592 0 0 1 362.52362,181.56447 Z"
               style="color:#000000;display:inline;overflow:visible;visibility:visible;opacity:1;fill:#ffffff;fill-opacity:1;stroke:#000000;stroke-width:1.21043;stroke-miterlimit:4;stroke-dasharray:none;stroke-opacity:1;marker:none;enable-background:accumulate" />
          </g>
        </g>
        <g
           transform="matrix(1.2189513,0,0,1.2189513,-495.96377,-8.4666747)"
           inkscape:label="Image"
           id="g1122">
          <g
             inkscape:label="Image"
             id="g3929-2"
             transform="translate(-288.89431,636.83941)">
            <g
               transform="translate(-493.79868,-8.1185834)"
               id="g3722-4"
               inkscape:label="Image">
              <g
                 transform="matrix(1.0595545,0,0,1.0595545,140.15804,-108.85065)"
                 id="g3720-5">
                <path
                   d="M 963.83093,-307.15955 A 175.31982,175.31982 0 0 1 788.51111,-131.83972 175.31982,175.31982 0 0 1 613.19128,-307.15955 175.31982,175.31982 0 0 1 788.51111,-482.47937 175.31982,175.31982 0 0 1 963.83093,-307.15955"
                   style="fill:#c0111e;fill-opacity:1;fill-rule:evenodd;stroke:none;stroke-width:6.91083"
                   id="path884" />
                <path
                   d="M 931.14854,-306.84509 A 142.48772,142.48772 0 0 1 788.66082,-164.35738 142.48772,142.48772 0 0 1 646.1731,-306.84509 142.48772,142.48772 0 0 1 788.66082,-449.33281 142.48772,142.48772 0 0 1 931.14854,-306.84509"
                   style="fill:#ffffff;fill-opacity:1;fill-rule:evenodd;stroke:none;stroke-width:5.61663"
                   id="ellipse886" />
              </g>
            </g>
          </g>
        </g>
      </g>
      <path
         transform="scale(1.1765728,0.84992616)"
         d="m 301.4707,131.99414 c -18.46903,0 -33.19764,10.19501 -44.18554,30.58398 -10.05277,18.60899 -15.08008,41.74919 -15.08008,69.41993 0,27.67074 4.96841,50.89131 14.9043,69.66211 10.9879,20.87441 25.7754,31.3125 44.36132,31.3125 18.35214,0 33.02187,-10.43809 44.00977,-31.3125 10.05277,-19.25625 15.07812,-42.63952 15.07812,-70.14844 0,-27.18529 -4.90953,-50.08243 -14.72851,-68.69141 -10.87102,-20.55078 -25.65656,-30.82617 -44.35938,-30.82617 z m -118.64258,3.15625 -83.986323,119.42188 v 36.16601 h 83.285153 v 38.59375 h 26.82617 v -38.59375 h 14.37891 V 253.60156 H 208.95312 V 135.15039 Z m 118.64258,35.68164 c 9.81898,0 17.64951,6.39027 23.49414,19.17383 5.37706,11.81266 8.06641,25.81047 8.06641,41.99219 0,16.34353 -2.68935,30.50209 -8.06641,42.47656 -5.84463,13.43083 -13.67516,20.14648 -23.49414,20.14648 -9.58519,0 -17.47656,-6.63333 -23.67187,-19.90234 -5.49395,-12.13629 -8.24024,-26.37717 -8.24024,-42.7207 0,-18.60898 3.21349,-33.4144 9.64258,-44.41797 6.54599,-11.16539 13.97016,-16.74805 22.26953,-16.74805 z m -119.34375,18.93164 v 64.08008 h -45.23633 z"
         style="font-style:normal;font-variant:normal;font-weight:normal;font-stretch:normal;font-family:BywayEModified;-inkscape-font-specification:BywayEModified;fill:#000000;stroke-width:5.15748;opacity:1"
         id="path5014" />
    </g>
    <g
       style="font-style:normal;font-weight:normal;font-size:206.299px;line-height:1.25;font-family:sans-serif;fill:#000000;fill-opacity:1;stroke:none;stroke-width:5.15748"
       id="text5009"
       transform="scale(0.84992616,1.1765728)"
       aria-label="0" />
  </g>
</svg>
